<?xml version="1.0" encoding="utf-8"?>
<!-- Generator: Adobe Illustrator 19.0.0, SVG Export Plug-In . SVG Version: 6.00 Build 0)  -->
<svg version="1.1" xmlns="http://www.w3.org/2000/svg" xmlns:xlink="http://www.w3.org/1999/xlink" x="0px" y="0px" width="2448px"
	 height="1000px" viewBox="744 -220 2448 1000" style="enable-background:new 744 -220 2448 1000;" xml:space="preserve">
<style type="text/css">
	.st0{display:none;}
	.st1{display:inline;}
	.st2{opacity:0.4;fill:none;stroke:#FFFFFF;stroke-width:2;enable-background:new    ;}
	.st3{opacity:0.4;fill:#FFFFFF;enable-background:new    ;}
	.st4{fill:#703B35;}
</style>
<g id="Layer_2" class="st0">
	<rect x="744" y="-220" class="st1" width="2448" height="996"/>
</g>
<g id="Layer_1">
	<path class="st2" d="M2172.9,343.7c-10.2-7.2-16.9-19.2-16.9-32.7v-25c0-22.1,17.9-40,40-40h139c22.1,0,40,17.9,40,40v25
		c0,12.5-5.8,23.7-14.8,31"/>
	<path class="st2" d="M1294.8,342.9c-9.6-7.3-15.8-18.9-15.8-31.9v-25c0-22.1,17.9-40,40-40h579c22.1,0,40,17.9,40,40v25
		c0,16.4-9.9,30.6-24.1,36.7"/>
	<path class="st2" d="M1237.2,594.8c-7.5-7.3-12.2-17.5-12.2-28.8v-25c0-22.1,17.9-40,40-40h715c22.1,0,40,17.9,40,40v25
		c0,12.3-5.6,23.3-14.3,30.6"/>
	<path class="st2" d="M2226,606c-22.1,0-40-17.9-40-40v-25c0-22.1,17.9-40,40-40h491c22.1,0,40,17.9,40,40v25
		c0,21.1-16.3,38.3-36.9,39.9"/>
	<rect x="1600" y="96" class="st3" width="862" height="2"/>
	<rect x="1189" y="83" class="st3" width="2077" height="2"/>
	<rect x="1832" y="98" class="st3" width="2" height="147"/>
	<rect x="1719" y="247" class="st3" width="2" height="93"/>
	<rect x="1612" y="341" class="st3" width="2" height="160"/>
	<rect x="2371" y="501.8" class="st3" width="2" height="50"/>
	<rect x="1818" y="502.1" class="st3" width="2" height="50"/>
	<rect x="2566" y="501.8" class="st3" width="2" height="50"/>
	<rect x="2267" y="98" class="st3" width="2" height="148"/>
	<rect x="2054" y="-118" class="st3" width="2" height="201"/>
	<rect x="690" y="324" class="st4" width="1" height="106"/>
	<rect x="1861" y="-119" class="st3" width="369" height="2"/>
	<path class="st3" d="M2402,339h146c0.6,0,1,0.4,1,1s-0.4,1-1,1h-146c-0.6,0-1-0.4-1-1S2401.4,339,2402,339z"/>
	<path class="st3" d="M1509,339h184c0.6,0,1,0.4,1,1s-0.4,1-1,1h-184c-0.6,0-1-0.4-1-1S1508.4,339,1509,339z"/>
	<rect x="2469" y="341.2" class="st3" width="2" height="158.7"/>
</g>
</svg>
